{
	"startPos": {
		"x": 550,
		"y": 525,
		"angle": -3.141592653589793
	},
	"borders": [
		[
			{
				"x": 82,
				"y": 212
			},
			{
				"x": 175,
				"y": 58
			},
			{
				"x": 342,
				"y": 23
			},
			{
				"x": 574,
				"y": 33
			},
			{
				"x": 673,
				"y": 111
			},
			{
				"x": 685,
				"y": 224
			},
			{
				"x": 606,
				"y": 301
			},
			{
				"x": 524,
				"y": 287
			},
			{
				"x": 428,
				"y": 265
			},
			{
				"x": 340,
				"y": 279
			},
			{
				"x": 357,
				"y": 343
			},
			{
				"x": 410,
				"y": 381
			},
			{
				"x": 549,
				"y": 377
			},
			{
				"x": 680,
				"y": 387
			},
			{
				"x": 766,
				"y": 441
			},
			{
				"x": 774,
				"y": 505
			},
			{
				"x": 734,
				"y": 565
			},
			{
				"x": 613,
				"y": 577
			},
			{
				"x": 406,
				"y": 576
			},
			{
				"x": 263,
				"y": 547
			},
			{
				"x": 133,
				"y": 454
			},
			{
				"x": 83,
				"y": 334
			}
		],
		[
			{
				"x": 634,
				"y": 475
			},
			{
				"x": 443,
				"y": 473
			},
			{
				"x": 298,
				"y": 442
			},
			{
				"x": 220,
				"y": 327
			},
			{
				"x": 213,
				"y": 257
			},
			{
				"x": 259,
				"y": 159
			},
			{
				"x": 329,
				"y": 136
			},
			{
				"x": 413,
				"y": 121
			},
			{
				"x": 499,
				"y": 116
			},
			{
				"x": 589,
				"y": 156
			},
			{
				"x": 593,
				"y": 192
			},
			{
				"x": 566,
				"y": 198
			},
			{
				"x": 534,
				"y": 185
			},
			{
				"x": 490,
				"y": 147
			},
			{
				"x": 375,
				"y": 147
			},
			{
				"x": 289,
				"y": 172
			},
			{
				"x": 241,
				"y": 237
			},
			{
				"x": 250,
				"y": 339
			},
			{
				"x": 326,
				"y": 424
			},
			{
				"x": 384,
				"y": 451
			},
			{
				"x": 498,
				"y": 462
			},
			{
				"x": 621,
				"y": 463
			}
		]
	]
}

